[
  {
    "daq_core.daq_algo-V2": {
      "entity": "daq_core.daq_algo",
      "architecture": "V2",
      "file": "src/daq_algo.vhd",
      "instantiations": [
        "daq_core.daq_ptr_handler-V2",
        "daq_core.daq_win_matching-V2",
        "daq_core.daq_node_mux-V2",
        "daq_core.daq_packet_builder-V2"
      ]
    },
    "daq_core.daq_bus_conv-V2": {
      "entity": "daq_core.daq_bus_conv",
      "architecture": "V2",
      "file": "src/daq_bus_conv.vhd",
      "instantiations": [
        "daq_core.daq_fifo-V1"
      ]
    },
    "daq_core.daq_data_node-V3": {
      "entity": "daq_core.daq_data_node",
      "architecture": "V3",
      "file": "src/daq_data_node.vhd",
      "instantiations": [
        "daq_core.daq_fifo-V1"
      ]
    },
    "daq_core.daq_fifo-V1": {
      "entity": "daq_core.daq_fifo",
      "architecture": "V1",
      "file": "src/daq_fifo.vhd",
      "instantiations": [
        "daq_core.daq_xpm_fifo-V1",
        "fwft-unknown"
      ]
    },
    "daq_core.daq_head_node-V2": {
      "entity": "daq_core.daq_head_node",
      "architecture": "V2",
      "file": "src/daq_head_node.vhd",
      "instantiations": [
      ]
    },
    "daq_core.daq_node_mux-V2": {
      "entity": "daq_core.daq_node_mux",
      "architecture": "V2",
      "file": "src/daq_wme_mux.vhd",
      "instantiations": [
        "daq_core.daq_bus_conv-V2"
      ]
    },
    "daq_core.daq_packet_builder-V2": {
      "entity": "daq_core.daq_packet_builder",
      "architecture": "V2",
      "file": "src/daq_packet_builder.vhd",
      "instantiations": [
        "daq_core.daq_fifo-V1"
      ]
    },
    "daq_core.daq_ptr_handler-V2": {
      "entity": "daq_core.daq_ptr_handler",
      "architecture": "V2",
      "file": "src/daq_ptr_handler.vhd",
      "instantiations": [
      ]
    },
    "daq_core.daq_req-V2": {
      "entity": "daq_core.daq_req",
      "architecture": "V2",
      "file": "src/daq_req.vhd",
      "instantiations": [
        "daq_core.daq_fifo-V1"
      ]
    },
    "daq_core.daq_win_matching-V2": {
      "entity": "daq_core.daq_win_matching",
      "architecture": "V2",
      "file": "src/daq_win_matching.vhd",
      "instantiations": [
        "daq_core.daq_head_node-V2",
        "daq_core.daq_data_node-V3"
      ]
    },
    "daq_core.daq_xpm_fifo-V1": {
      "entity": "daq_core.daq_xpm_fifo",
      "architecture": "V1",
      "file": "src/daq_xpm_fifo.vhd",
      "instantiations": [
        "xpm_fifo_sync-unknown"
      ]
    }
  },
  [
  ],
  [
    "daq_core.daq_algo-V2",
    "daq_core.daq_req-V2"
  ]
]
